FIRMWARE_VER:4.4.2
MACHINE_MODEL:rk30sdk
MACHINE_ID:007
MANUFACTURER:RK30SDK
MAGIC: 0x5041524B
ATAG: 0x60000800
MACHINE: 3066
CHECK_MASK: 0x80
PWR_HLD: 0,0,A,0,1
#KERNEL_IMG: 0x62008000
#FDT_NAME: rk-kernel.dtb
#RECOVER_KEY: 1,1,0,20,0
CMDLINE:console=tty0 console=ttyFIQ0 earlyprintk androidboot.hardware=rk30board androidboot.console=ttyFIQ0 board.ap_has_alsa=0 root=/dev/block/mtd/by-name/linuxroot rw rootfstype=ext4 init=/sbin/init initrd=0x62000000,0x00800000 mtdparts=rk29xxnand:0x00002000@0x00002000(uboot),0x00002000@0x00004000(misc),0x00008000@0x00006000(resource),0x00008000@0x0000e000(kernel),0x00010000@0x00016000(boot),0x00010000@0x00026000(recovery),0x0001a000@0x00036000(backup),0x00040000@0x00050000(cache),0x00002000@0x00090000(kpanic),0x00180000@0x00092000(system),0x00002000@0x00212000(metadata),0x00200000@0x00214000(userdata),0x00620000@0x00414000(linuxroot),-@0x00a34000(user)
